[gd_resource type="Animation" format=2]

[resource]
resource_name = "camera spieler"
tracks/0/type = "value"
tracks/0/path = NodePath("Camera2D:position")
tracks/0/interp = 1
tracks/0/loop_wrap = true
tracks/0/imported = false
tracks/0/enabled = true
tracks/0/keys = {
"times": PoolRealArray( 0, 0.3 ),
"transitions": PoolRealArray( 1, 5 ),
"update": 0,
"values": [ Vector2( 270, 90 ), Vector2( 70, 160 ) ]
}
