[gd_scene load_steps=3 format=2]

[ext_resource path="res://Data/Assets/Background/Wolke.png" type="Texture" id=1]
[ext_resource path="res://Data/Skript/KinematicBody2D.gd" type="Script" id=2]

[node name="Node2D" type="Node2D"]

[node name="KinematicBody2D" type="KinematicBody2D" parent="."]
script = ExtResource( 2 )

[node name="Wolke1" type="Sprite" parent="KinematicBody2D"]
texture = ExtResource( 1 )
